{
  "images" : [
    {
      "idiom" : "iphone",
      "filename" : "indoor-temperature-w_40-1.png",
      "scale" : "1x"
    },
    {
      "idiom" : "iphone",
      "filename" : "indoor-temperature-w_80.png",
      "scale" : "2x"
    },
    {
      "idiom" : "iphone",
      "filename" : "indoor-temperature-w_135.png",
      "scale" : "3x"
    },
    {
      "idiom" : "ipad",
      "filename" : "indoor-temperature-w_50.png",
      "scale" : "1x"
    },
    {
      "idiom" : "ipad",
      "filename" : "indoor-temperature-w_100.png",
      "scale" : "2x"
    }
  ],
  "info" : {
    "version" : 1,
    "author" : "xcode"
  }
}